{
    "curPage": 2,
    "datas": [
      {
        "adminAdd": false,
        "apkLink": "",
        "audit": 1,
        "author": "",
        "canEdit": false,
        "chapterId": 502,
        "chapterName": "自助",
        "collect": false,
        "courseId": 13,
        "desc": "",
        "descMd": "",
        "envelopePic": "",
        "fresh": false,
        "host": "",
        "id": 29079,
        "isAdminAdd": false,
        "link": "https://blog.csdn.net/hx7013/article/details/143198862",
        "niceDate": "2024-10-24 09:21",
        "niceShareDate": "2024-10-24 09:21",
        "origin": "",
        "prefix": "",
        "projectLink": "",
        "publishTime": 1729732897000,
        "realSuperChapterId": 493,
        "selfVisible": 0,
        "shareDate": 1729732897000,
        "shareUser": "Ａｎｄｒｏｉｄ",
        "superChapterId": 494,
        "superChapterName": "广场Tab",
        "tags": [],
        "title": "Android Room(SQLite) too many SQL variables异常",
        "type": 0,
        "userId": 16289,
        "visible": 1,
        "zan": 0
      },
      {
        "adminAdd": false,
        "apkLink": "",
        "audit": 1,
        "author": "鸿洋",
        "canEdit": false,
        "chapterId": 408,
        "chapterName": "鸿洋",
        "collect": false,
        "courseId": 13,
        "desc": "",
        "descMd": "",
        "envelopePic": "",
        "fresh": false,
        "host": "",
        "id": 29090,
        "isAdminAdd": false,
        "link": "https://mp.weixin.qq.com/s/PQzOie3Vcx5wsxBY5PP_gg",
        "niceDate": "2024-10-24 00:00",
        "niceShareDate": "1天前",
        "origin": "",
        "prefix": "",
        "projectLink": "",
        "publishTime": 1729699200000,
        "realSuperChapterId": 407,
        "selfVisible": 0,
        "shareDate": 1730445299000,
        "shareUser": "",
        "superChapterId": 408,
        "superChapterName": "公众号",
        "tags": [
          {
            "name": "公众号",
            "url": "/wxarticle/list/408/1"
          }
        ],
        "title": "简洁高效：类抖音视频列表设计思路",
        "type": 0,
        "userId": -1,
        "visible": 1,
        "zan": 0
      },
      {
        "adminAdd": false,
        "apkLink": "",
        "audit": 1,
        "author": "郭霖",
        "canEdit": false,
        "chapterId": 409,
        "chapterName": "郭霖",
        "collect": false,
        "courseId": 13,
        "desc": "",
        "descMd": "",
        "envelopePic": "",
        "fresh": false,
        "host": "",
        "id": 29102,
        "isAdminAdd": false,
        "link": "https://mp.weixin.qq.com/s/87w-VA6b-vq96a5CcH0c9g",
        "niceDate": "2024-10-24 00:00",
        "niceShareDate": "1天前",
        "origin": "",
        "prefix": "",
        "projectLink": "",
        "publishTime": 1729699200000,
        "realSuperChapterId": 407,
        "selfVisible": 0,
        "shareDate": 1730445895000,
        "shareUser": "",
        "superChapterId": 408,
        "superChapterName": "公众号",
        "tags": [
          {
            "name": "公众号",
            "url": "/wxarticle/list/409/1"
          }
        ],
        "title": "深入理解Android WebView的加载流程与事件回调",
        "type": 0,
        "userId": -1,
        "visible": 1,
        "zan": 0
      },
      {
        "adminAdd": false,
        "apkLink": "",
        "audit": 1,
        "author": "鸿洋",
        "canEdit": false,
        "chapterId": 408,
        "chapterName": "鸿洋",
        "collect": false,
        "courseId": 13,
        "desc": "",
        "descMd": "",
        "envelopePic": "",
        "fresh": false,
        "host": "",
        "id": 29089,
        "isAdminAdd": false,
        "link": "https://mp.weixin.qq.com/s/d3tXUuiD2Cy4fGgEznTNpQ",
        "niceDate": "2024-10-23 00:00",
        "niceShareDate": "1天前",
        "origin": "",
        "prefix": "",
        "projectLink": "",
        "publishTime": 1729612800000,
        "realSuperChapterId": 407,
        "selfVisible": 0,
        "shareDate": 1730445281000,
        "shareUser": "",
        "superChapterId": 408,
        "superChapterName": "公众号",
        "tags": [
          {
            "name": "公众号",
            "url": "/wxarticle/list/408/1"
          }
        ],
        "title": "【Android】谷歌为什么不帮我默认实现啊，ImageGetter 和 TagHandler 的作用与区别",
        "type": 0,
        "userId": -1,
        "visible": 1,
        "zan": 0
      },
      {
        "adminAdd": false,
        "apkLink": "",
        "audit": 1,
        "author": "郭霖",
        "canEdit": false,
        "chapterId": 409,
        "chapterName": "郭霖",
        "collect": false,
        "courseId": 13,
        "desc": "",
        "descMd": "",
        "envelopePic": "",
        "fresh": false,
        "host": "",
        "id": 29101,
        "isAdminAdd": false,
        "link": "https://mp.weixin.qq.com/s/tHy71wWJeW_2Y75NtXkL9A",
        "niceDate": "2024-10-23 00:00",
        "niceShareDate": "1天前",
        "origin": "",
        "prefix": "",
        "projectLink": "",
        "publishTime": 1729612800000,
        "realSuperChapterId": 407,
        "selfVisible": 0,
        "shareDate": 1730445881000,
        "shareUser": "",
        "superChapterId": 408,
        "superChapterName": "公众号",
        "tags": [
          {
            "name": "公众号",
            "url": "/wxarticle/list/409/1"
          }
        ],
        "title": "Android手机投屏方案实现方式对比",
        "type": 0,
        "userId": -1,
        "visible": 1,
        "zan": 0
      },
      {
        "adminAdd": false,
        "apkLink": "",
        "audit": 1,
        "author": "",
        "canEdit": false,
        "chapterId": 502,
        "chapterName": "自助",
        "collect": false,
        "courseId": 13,
        "desc": "",
        "descMd": "",
        "envelopePic": "",
        "fresh": false,
        "host": "",
        "id": 29076,
        "isAdminAdd": false,
        "link": "https://juejin.cn/post/7428216743166771212",
        "niceDate": "2024-10-22 17:57",
        "niceShareDate": "2024-10-22 17:57",
        "origin": "",
        "prefix": "",
        "projectLink": "",
        "publishTime": 1729591021000,
        "realSuperChapterId": 493,
        "selfVisible": 0,
        "shareDate": 1729591021000,
        "shareUser": "wgllss",
        "superChapterId": 494,
        "superChapterName": "广场Tab",
        "tags": [],
        "title": "花式高阶：插件化之Dex文件的高阶用法，极少人知道的秘密",
        "type": 0,
        "userId": 161755,
        "visible": 1,
        "zan": 0
      },
      {
        "adminAdd": false,
        "apkLink": "",
        "audit": 1,
        "author": "张鸿洋",
        "canEdit": false,
        "chapterId": 543,
        "chapterName": "Android技术周报",
        "collect": false,
        "courseId": 13,
        "desc": "",
        "descMd": "",
        "envelopePic": "",
        "fresh": false,
        "host": "",
        "id": 29073,
        "isAdminAdd": false,
        "link": "https://www.wanandroid.com/blog/show/3703",
        "niceDate": "2024-10-22 00:00",
        "niceShareDate": "2024-10-22 00:10",
        "origin": "",
        "prefix": "",
        "projectLink": "",
        "publishTime": 1729526400000,
        "realSuperChapterId": 542,
        "selfVisible": 0,
        "shareDate": 1729527000000,
        "shareUser": "",
        "superChapterId": 543,
        "superChapterName": "技术周报",
        "tags": [],
        "title": "Android 技术周刊 （2024-10-15 ~ 2024-10-22）",
        "type": 0,
        "userId": -1,
        "visible": 1,
        "zan": 0
      },
      {
        "adminAdd": false,
        "apkLink": "",
        "audit": 1,
        "author": "鸿洋",
        "canEdit": false,
        "chapterId": 408,
        "chapterName": "鸿洋",
        "collect": false,
        "courseId": 13,
        "desc": "",
        "descMd": "",
        "envelopePic": "",
        "fresh": false,
        "host": "",
        "id": 29088,
        "isAdminAdd": false,
        "link": "https://mp.weixin.qq.com/s/BXfsp3BnudMXFQyoL_9cww",
        "niceDate": "2024-10-22 00:00",
        "niceShareDate": "1天前",
        "origin": "",
        "prefix": "",
        "projectLink": "",
        "publishTime": 1729526400000,
        "realSuperChapterId": 407,
        "selfVisible": 0,
        "shareDate": 1730445265000,
        "shareUser": "",
        "superChapterId": 408,
        "superChapterName": "公众号",
        "tags": [
          {
            "name": "公众号",
            "url": "/wxarticle/list/408/1"
          }
        ],
        "title": "好用的HarmonyOS Next 横向、纵向下拉刷新控件",
        "type": 0,
        "userId": -1,
        "visible": 1,
        "zan": 0
      },
      {
        "adminAdd": false,
        "apkLink": "",
        "audit": 1,
        "author": "郭霖",
        "canEdit": false,
        "chapterId": 409,
        "chapterName": "郭霖",
        "collect": false,
        "courseId": 13,
        "desc": "",
        "descMd": "",
        "envelopePic": "",
        "fresh": false,
        "host": "",
        "id": 29100,
        "isAdminAdd": false,
        "link": "https://mp.weixin.qq.com/s/6VYrq6vJJ5fY-z_nBxU7yQ",
        "niceDate": "2024-10-22 00:00",
        "niceShareDate": "1天前",
        "origin": "",
        "prefix": "",
        "projectLink": "",
        "publishTime": 1729526400000,
        "realSuperChapterId": 407,
        "selfVisible": 0,
        "shareDate": 1730445866000,
        "shareUser": "",
        "superChapterId": 408,
        "superChapterName": "公众号",
        "tags": [
          {
            "name": "公众号",
            "url": "/wxarticle/list/409/1"
          }
        ],
        "title": "原创：写给初学者的Jetpack Compose教程，edge-to-edge全面屏体验",
        "type": 0,
        "userId": -1,
        "visible": 1,
        "zan": 0
      },
      {
        "adminAdd": false,
        "apkLink": "",
        "audit": 1,
        "author": "谷歌开发者",
        "canEdit": false,
        "chapterId": 415,
        "chapterName": "谷歌开发者",
        "collect": false,
        "courseId": 13,
        "desc": "",
        "descMd": "",
        "envelopePic": "",
        "fresh": false,
        "host": "",
        "id": 29097,
        "isAdminAdd": false,
        "link": "https://mp.weixin.qq.com/s/NCiRQKjib7bccrdTRyKbcg",
        "niceDate": "2024-10-21 00:00",
        "niceShareDate": "1天前",
        "origin": "",
        "prefix": "",
        "projectLink": "",
        "publishTime": 1729440000000,
        "realSuperChapterId": 407,
        "selfVisible": 0,
        "shareDate": 1730445568000,
        "shareUser": "",
        "superChapterId": 408,
        "superChapterName": "公众号",
        "tags": [
          {
            "name": "公众号",
            "url": "/wxarticle/list/415/1"
          }
        ],
        "title": "技巧干货分享 | Android 15 默认采用无边框设计后，边衬区如何处理？",
        "type": 0,
        "userId": -1,
        "visible": 1,
        "zan": 0
      },
      {
        "adminAdd": false,
        "apkLink": "",
        "audit": 1,
        "author": "郭霖",
        "canEdit": false,
        "chapterId": 409,
        "chapterName": "郭霖",
        "collect": false,
        "courseId": 13,
        "desc": "",
        "descMd": "",
        "envelopePic": "",
        "fresh": false,
        "host": "",
        "id": 29099,
        "isAdminAdd": false,
        "link": "https://mp.weixin.qq.com/s/Y0mb44zzZtt-TcGfh9EI0g",
        "niceDate": "2024-10-21 00:00",
        "niceShareDate": "1天前",
        "origin": "",
        "prefix": "",
        "projectLink": "",
        "publishTime": 1729440000000,
        "realSuperChapterId": 407,
        "selfVisible": 0,
        "shareDate": 1730445854000,
        "shareUser": "",
        "superChapterId": 408,
        "superChapterName": "公众号",
        "tags": [
          {
            "name": "公众号",
            "url": "/wxarticle/list/409/1"
          }
        ],
        "title": "系统 DNS与HTTPDNS：原理、特性及其应用场景",
        "type": 0,
        "userId": -1,
        "visible": 1,
        "zan": 0
      },
      {
        "adminAdd": false,
        "apkLink": "",
        "audit": 1,
        "author": "鸿洋",
        "canEdit": false,
        "chapterId": 408,
        "chapterName": "鸿洋",
        "collect": false,
        "courseId": 13,
        "desc": "",
        "descMd": "",
        "envelopePic": "",
        "fresh": false,
        "host": "",
        "id": 29087,
        "isAdminAdd": false,
        "link": "https://mp.weixin.qq.com/s/Ak9k250hzMMqE-K_PhZM9A",
        "niceDate": "2024-10-18 00:00",
        "niceShareDate": "1天前",
        "origin": "",
        "prefix": "",
        "projectLink": "",
        "publishTime": 1729180800000,
        "realSuperChapterId": 407,
        "selfVisible": 0,
        "shareDate": 1730445251000,
        "shareUser": "",
        "superChapterId": 408,
        "superChapterName": "公众号",
        "tags": [
          {
            "name": "公众号",
            "url": "/wxarticle/list/408/1"
          }
        ],
        "title": "Android | 多种方式实现图片圆角矩形和圆形效果",
        "type": 0,
        "userId": -1,
        "visible": 1,
        "zan": 0
      },
      {
        "adminAdd": false,
        "apkLink": "",
        "audit": 1,
        "author": "美团技术团队",
        "canEdit": false,
        "chapterId": 417,
        "chapterName": "美团技术团队",
        "collect": false,
        "courseId": 13,
        "desc": "",
        "descMd": "",
        "envelopePic": "",
        "fresh": false,
        "host": "",
        "id": 29047,
        "isAdminAdd": false,
        "link": "https://mp.weixin.qq.com/s/ocGLvUmAnglZbcKRmK72Yg",
        "niceDate": "2024-10-17 00:00",
        "niceShareDate": "2024-10-17 21:22",
        "origin": "",
        "prefix": "",
        "projectLink": "",
        "publishTime": 1729094400000,
        "realSuperChapterId": 407,
        "selfVisible": 0,
        "shareDate": 1729171341000,
        "shareUser": "",
        "superChapterId": 408,
        "superChapterName": "公众号",
        "tags": [
          {
            "name": "公众号",
            "url": "/wxarticle/list/417/1"
          }
        ],
        "title": "大前端：如何突破动态化容器的天花板？",
        "type": 0,
        "userId": -1,
        "visible": 1,
        "zan": 0
      },
      {
        "adminAdd": false,
        "apkLink": "",
        "audit": 1,
        "author": "鸿洋",
        "canEdit": false,
        "chapterId": 408,
        "chapterName": "鸿洋",
        "collect": false,
        "courseId": 13,
        "desc": "",
        "descMd": "",
        "envelopePic": "",
        "fresh": false,
        "host": "",
        "id": 29059,
        "isAdminAdd": false,
        "link": "https://mp.weixin.qq.com/s/31dB7qRmgPyCJOFfFS_ZQg",
        "niceDate": "2024-10-17 00:00",
        "niceShareDate": "2024-10-17 21:28",
        "origin": "",
        "prefix": "",
        "projectLink": "",
        "publishTime": 1729094400000,
        "realSuperChapterId": 407,
        "selfVisible": 0,
        "shareDate": 1729171692000,
        "shareUser": "",
        "superChapterId": 408,
        "superChapterName": "公众号",
        "tags": [
          {
            "name": "公众号",
            "url": "/wxarticle/list/408/1"
          }
        ],
        "title": "探索JNI：基础、更佳实践、性能优化与安全策略",
        "type": 0,
        "userId": -1,
        "visible": 1,
        "zan": 0
      },
      {
        "adminAdd": false,
        "apkLink": "",
        "audit": 1,
        "author": "郭霖",
        "canEdit": false,
        "chapterId": 409,
        "chapterName": "郭霖",
        "collect": false,
        "courseId": 13,
        "desc": "",
        "descMd": "",
        "envelopePic": "",
        "fresh": false,
        "host": "",
        "id": 29069,
        "isAdminAdd": false,
        "link": "https://mp.weixin.qq.com/s/NUA7jmjIscgoCBYvckl4gw",
        "niceDate": "2024-10-17 00:00",
        "niceShareDate": "2024-10-17 21:32",
        "origin": "",
        "prefix": "",
        "projectLink": "",
        "publishTime": 1729094400000,
        "realSuperChapterId": 407,
        "selfVisible": 0,
        "shareDate": 1729171964000,
        "shareUser": "",
        "superChapterId": 408,
        "superChapterName": "公众号",
        "tags": [
          {
            "name": "公众号",
            "url": "/wxarticle/list/409/1"
          }
        ],
        "title": "Kotlin协程的本质，一起来看看",
        "type": 0,
        "userId": -1,
        "visible": 1,
        "zan": 0
      },
      {
        "adminAdd": false,
        "apkLink": "",
        "audit": 1,
        "author": "鸿洋",
        "canEdit": false,
        "chapterId": 408,
        "chapterName": "鸿洋",
        "collect": false,
        "courseId": 13,
        "desc": "",
        "descMd": "",
        "envelopePic": "",
        "fresh": false,
        "host": "",
        "id": 29058,
        "isAdminAdd": false,
        "link": "https://mp.weixin.qq.com/s/ad-exk3ZCWPME6JbustR_w",
        "niceDate": "2024-10-16 00:00",
        "niceShareDate": "2024-10-17 21:28",
        "origin": "",
        "prefix": "",
        "projectLink": "",
        "publishTime": 1729008000000,
        "realSuperChapterId": 407,
        "selfVisible": 0,
        "shareDate": 1729171680000,
        "shareUser": "",
        "superChapterId": 408,
        "superChapterName": "公众号",
        "tags": [
          {
            "name": "公众号",
            "url": "/wxarticle/list/408/1"
          }
        ],
        "title": "Perfetto 快速上手指南",
        "type": 0,
        "userId": -1,
        "visible": 1,
        "zan": 0
      },
      {
        "adminAdd": false,
        "apkLink": "",
        "audit": 1,
        "author": "郭霖",
        "canEdit": false,
        "chapterId": 409,
        "chapterName": "郭霖",
        "collect": false,
        "courseId": 13,
        "desc": "",
        "descMd": "",
        "envelopePic": "",
        "fresh": false,
        "host": "",
        "id": 29068,
        "isAdminAdd": false,
        "link": "https://mp.weixin.qq.com/s/gNP92eyl-5n-JEz1pvdX0w",
        "niceDate": "2024-10-16 00:00",
        "niceShareDate": "2024-10-17 21:32",
        "origin": "",
        "prefix": "",
        "projectLink": "",
        "publishTime": 1729008000000,
        "realSuperChapterId": 407,
        "selfVisible": 0,
        "shareDate": 1729171950000,
        "shareUser": "",
        "superChapterId": 408,
        "superChapterName": "公众号",
        "tags": [
          {
            "name": "公众号",
            "url": "/wxarticle/list/409/1"
          }
        ],
        "title": "Android 15 正式发布至 AOSP",
        "type": 0,
        "userId": -1,
        "visible": 1,
        "zan": 0
      },
      {
        "adminAdd": false,
        "apkLink": "",
        "audit": 1,
        "author": "",
        "canEdit": false,
        "chapterId": 502,
        "chapterName": "自助",
        "collect": false,
        "courseId": 13,
        "desc": "",
        "descMd": "",
        "envelopePic": "",
        "fresh": false,
        "host": "",
        "id": 29029,
        "isAdminAdd": false,
        "link": "https://juejin.cn/post/7424908830902157364",
        "niceDate": "2024-10-15 17:29",
        "niceShareDate": "2024-10-13 22:56",
        "origin": "",
        "prefix": "",
        "projectLink": "",
        "publishTime": 1728984567000,
        "realSuperChapterId": 493,
        "selfVisible": 0,
        "shareDate": 1728831374000,
        "shareUser": "鸿洋",
        "superChapterId": 494,
        "superChapterName": "广场Tab",
        "tags": [],
        "title": "鸿蒙开发：实现一个超简单的网格拖拽",
        "type": 0,
        "userId": 2,
        "visible": 1,
        "zan": 0
      },
      {
        "adminAdd": false,
        "apkLink": "",
        "audit": 1,
        "author": "",
        "canEdit": false,
        "chapterId": 502,
        "chapterName": "自助",
        "collect": false,
        "courseId": 13,
        "desc": "",
        "descMd": "",
        "envelopePic": "",
        "fresh": false,
        "host": "",
        "id": 29030,
        "isAdminAdd": false,
        "link": "https://juejin.cn/post/7424902468217946162",
        "niceDate": "2024-10-15 17:29",
        "niceShareDate": "2024-10-13 22:56",
        "origin": "",
        "prefix": "",
        "projectLink": "",
        "publishTime": 1728984563000,
        "realSuperChapterId": 493,
        "selfVisible": 0,
        "shareDate": 1728831385000,
        "shareUser": "鸿洋",
        "superChapterId": 494,
        "superChapterName": "广场Tab",
        "tags": [],
        "title": "外国程序员邮件问我安卓如何解决悬浮窗中WebView无法选中文本",
        "type": 0,
        "userId": 2,
        "visible": 1,
        "zan": 0
      },
      {
        "adminAdd": false,
        "apkLink": "",
        "audit": 1,
        "author": "",
        "canEdit": false,
        "chapterId": 502,
        "chapterName": "自助",
        "collect": false,
        "courseId": 13,
        "desc": "",
        "descMd": "",
        "envelopePic": "",
        "fresh": false,
        "host": "",
        "id": 29031,
        "isAdminAdd": false,
        "link": "https://juejin.cn/post/7424431087894724648",
        "niceDate": "2024-10-15 17:29",
        "niceShareDate": "2024-10-13 22:56",
        "origin": "",
        "prefix": "",
        "projectLink": "",
        "publishTime": 1728984561000,
        "realSuperChapterId": 493,
        "selfVisible": 0,
        "shareDate": 1728831416000,
        "shareUser": "鸿洋",
        "superChapterId": 494,
        "superChapterName": "广场Tab",
        "tags": [],
        "title": "Android 未来可能支持 Linux 应用，Linux 终端可能登陆 Android 平台",
        "type": 0,
        "userId": 2,
        "visible": 1,
        "zan": 0
      }
    ],
    "offset": 20,
    "over": false,
    "pageCount": 789,
    "size": 20,
    "total": 15780
}
